<?xml version="1.0" encoding="UTF-8"?>
<svg width="24px" height="32px" viewBox="0 0 24 32" version="1.1" xmlns="http://www.w3.org/2000/svg" xmlns:xlink="http://www.w3.org/1999/xlink">
    <!-- Generator: Sketch 52.5 (67469) - http://www.bohemiancoding.com/sketch -->
    <title>Progetti</title>
    <desc>Created with Sketch.</desc>
    <g id="Symbols" stroke="none" stroke-width="1" fill="none" fill-rule="evenodd" stroke-linecap="round" stroke-linejoin="round">
        <g id="Progetti" transform="translate(1.000000, 1.000000)" stroke="#B2BAC9">
            <path d="M3.78446047,10.1354 C3.9573907,9.26051628 4.16255349,8.39177209 4.40046047,7.53121395 C4.56111163,6.94744651 4.73711163,6.36674884 4.92743721,5.79116744 L5.56287907,3.8689814 L5.56287907,1.23153953 L19.1276698,0.383772093 L19.1276698,3.02121395 L16.6616233,11.3280047" id="Stroke-1"></path>
            <path d="M19.1278233,3.02131628 L20.7087535,10.5811302 C21.2971256,13.3971302 21.5938698,16.2668512 21.5938698,19.1442465 L21.5938698,27.9759674 C21.5938698,27.9759674 20.8530326,30.3494093 16.6617767,29.8255023 L3.09647442,28.1299674 L3.09647442,22.8100605" id="Stroke-3"></path>
            <path d="M5.56293023,3.86893023 L10.4955349,3.5604186" id="Stroke-5"></path>
            <polygon id="Stroke-7" points="7.13004651 10.2867907 7.44572093 14.6755349 11.6707442 15.9049767 7.59409302 17.5611163 7.73069767 21.9595814 4.89576744 18.594093 0.755162791 20.0829302 3.07948837 16.3470233 0.38372093 12.8689767 4.65530233 13.9249767"></polygon>
        </g>
    </g>
</svg>