<?xml version="1.0" encoding="UTF-8"?>
<svg width="23px" height="24px" viewBox="0 0 23 24" version="1.1" xmlns="http://www.w3.org/2000/svg" xmlns:xlink="http://www.w3.org/1999/xlink">
    <!-- Generator: Sketch 52.5 (67469) - http://www.bohemiancoding.com/sketch -->
    <title>Fatturazione</title>
    <desc>Created with Sketch.</desc>
    <g id="Symbols" stroke="none" stroke-width="1" fill="none" fill-rule="evenodd" stroke-linecap="round" stroke-linejoin="round">
        <g id="Fatturazione" transform="translate(1.000000, 1.000000)" stroke="#A7B0C1">
            <polyline id="Stroke-1" points="4.3311 0.45 17.8125 0.45 17.8125 18.543"></polyline>
            <path d="M3.44166,21.91818 L17.81226,21.91818 C19.46406,21.91818 20.80386,20.57898 20.80386,18.92658 L6.43266,18.92658 C6.43266,20.57898 5.09346,21.91818 3.44166,21.91818 C1.78926,21.91818 0.45006,20.57898 0.45006,18.92658 L0.45006,0.45018" id="Stroke-3"></path>
            <path d="M4.3311,5.277 L12.4497,5.277" id="Stroke-5"></path>
            <path d="M4.3311,12.03636 L10.2357,12.03636" id="Stroke-7"></path>
            <path d="M4.3311,8.65668 L14.5311,8.65668" id="Stroke-9"></path>
        </g>
    </g>
</svg>