<?xml version="1.0" encoding="UTF-8"?>
<svg width="25px" height="23px" viewBox="0 0 25 23" version="1.1" xmlns="http://www.w3.org/2000/svg" xmlns:xlink="http://www.w3.org/1999/xlink">
    <!-- Generator: Sketch 52.5 (67469) - http://www.bohemiancoding.com/sketch -->
    <title>Indirizzi di spedizione</title>
    <desc>Created with Sketch.</desc>
    <g id="Symbols" stroke="none" stroke-width="1" fill="none" fill-rule="evenodd" stroke-linecap="round" stroke-linejoin="round">
        <g id="Indirizzi-di-spedizione" transform="translate(1.000000, 1.000000)" stroke="#A7B0C1">
            <path d="M15.9233488,11.2869415 C18.4095927,8.80125854 18.4095927,4.77064878 15.9233488,2.28496585 C13.4376659,-0.200717073 9.40761707,-0.200717073 6.92193415,2.28496585 C4.43569024,4.77064878 4.43569024,8.80125854 6.92193415,11.2869415 L11.4226415,15.7876488 L15.9233488,11.2869415 Z" id="Stroke-1"></path>
            <path d="M12.7300512,8.0936439 C12.0080756,8.81561951 10.8373195,8.81561951 10.1153439,8.0936439 C9.39336829,7.37110732 9.39336829,6.20035122 10.1153439,5.47837561 C10.8373195,4.7564 12.0080756,4.7564 12.7300512,5.47837561 C13.4520268,6.20035122 13.4520268,7.37110732 12.7300512,8.0936439 Z" id="Stroke-3"></path>
            <path d="M17.6917683,13.9507902 C20.6385732,14.6183512 22.5761829,15.749278 22.5761829,17.0316683 C22.5761829,19.0831561 17.6160366,20.7464488 11.4985976,20.7464488 C5.38059756,20.7464488 0.421012195,19.0831561 0.421012195,17.0316683 C0.421012195,15.7868634 2.2447439,14.6856683 5.04513415,14.0113756" id="Stroke-5"></path>
        </g>
    </g>
</svg>