<?xml version="1.0" encoding="UTF-8"?>
<svg width="20px" height="247px" viewBox="0 0 20 247" version="1.1" xmlns="http://www.w3.org/2000/svg" xmlns:xlink="http://www.w3.org/1999/xlink">
    <!-- Generator: Sketch 59.1 (86144) - https://sketch.com -->
    <title>Group 13</title>
    <desc>Created with Sketch.</desc>
    <g id="Welcome" stroke="none" stroke-width="1" fill="none" fill-rule="evenodd">
        <g id="Nuevo-Home" transform="translate(-1287.000000, -282.000000)" fill="#FFFFFF">
            <g id="Group-13" transform="translate(1287.000000, 282.000000)">
                <g id="Group-28">
                    <g id="Group" fill-rule="nonzero">
                        <path d="M9.769784,0.117477019 C10.1106162,0.120951247 10.451094,0.140252517 10.7901547,0.178855055 C11.469339,0.256832182 12.1400202,0.408540157 12.786255,0.632048853 C14.0794331,1.07906624 15.2691571,1.81135639 16.2533897,2.76136486 C16.7968788,3.28558732 17.2773033,3.87466206 17.6808458,4.51237599 C18.0585247,5.1087852 18.3688874,5.74804323 18.603431,6.41355099 C18.8305343,7.05821338 18.9867786,7.72719536 19.0686208,8.40544196 C19.1118449,8.76367351 19.1334569,9.12383519 19.1369999,9.48476893 C19.1462115,12.450988 19.1462115,15.417207 19.1369999,18.383426 C19.1334569,18.7443598 19.1118449,19.1045214 19.0686208,19.462753 C18.9867786,20.1409996 18.8305343,20.8099816 18.603431,21.454644 C18.3688874,22.1201517 18.0585247,22.7590237 17.6808458,23.355819 C17.2670288,24.009746 16.7727867,24.6123316 16.2126457,25.1462047 C15.2362076,26.0769119 14.0617184,26.7953051 12.786255,27.2361461 C12.1587978,27.4530924 11.5083115,27.6028702 10.8489678,27.6823914 C10.4907751,27.7256263 10.1304567,27.7472437 9.769784,27.7507179 C9.61779127,27.7510632 9.46579855,27.75149 9.31380583,27.7499459 C8.97297366,27.7445415 8.63320438,27.7233101 8.29520658,27.6823914 C7.6167309,27.6005541 6.94746691,27.4442138 6.30335789,27.2172309 C5.01336836,26.762493 3.82860458,26.0228683 2.8500407,25.0674555 C1.81762393,24.0591572 1.0204593,22.8157695 0.540743341,21.454644 C0.313639995,20.8099816 0.157395728,20.1409996 0.0755534923,19.462753 C0.0323294545,19.1045214 0.0107174356,18.7443598 0.00717448168,18.383426 C-0.00239149389,15.417207 -0.00239149389,12.450988 0.00717448168,9.48476893 C0.0107174356,9.12383519 0.0323294545,8.76367351 0.0755534923,8.40544196 C0.157395728,7.72719536 0.313639995,7.05821338 0.540743341,6.41355099 C1.00805896,5.08793983 1.77581708,3.87389001 2.76961565,2.88026067 C3.76341422,1.88624532 4.97758453,1.11844083 6.30335789,0.650964096 C6.94746691,0.423981172 7.6167309,0.268026918 8.29520658,0.185803512 C8.65339922,0.142568669 9.01371763,0.120951247 9.37439034,0.117477019 C9.50618823,0.1171875 9.63798611,0.1171875 9.769784,0.117477019 Z M9.43674633,1.8869556 C9.14197256,1.88817544 8.84790739,1.90361646 8.55525939,1.93720067 C7.98874106,2.00205293 7.42966294,2.13059938 6.89148824,2.32013785 C5.81443025,2.69998682 4.82842617,3.32418986 4.02098697,4.13136894 C3.21354778,4.93893403 2.5892793,5.92484286 2.20982893,7.00185367 C2.02559533,7.52491806 1.89875758,8.06766975 1.83250434,8.61775592 C1.7970748,8.90920508 1.77971433,9.20258437 1.77687996,9.49596366 C1.76731399,12.4710613 1.74889063,15.4465449 1.77723426,18.4216425 C1.78290298,18.762889 1.80841225,19.1037494 1.85801361,19.4415216 C1.95367336,20.0958346 2.1354269,20.7370228 2.3968969,21.3446267 C2.76819847,22.2073934 3.29999585,22.9995175 3.95650521,23.6712017 C4.71009151,24.4428664 5.62523651,25.0539446 6.62860106,25.4500067 C7.27660733,25.7055555 7.95898025,25.8711603 8.65162774,25.941417 C8.84649021,25.9611043 9.04170697,25.9734571 9.23727802,25.9784754 C9.39387659,25.9827217 9.55082945,25.9811776 9.70742801,25.9811776 C10.6041496,25.9807916 11.4987455,25.8248373 12.3405514,25.516403 C13.3981231,25.1288335 14.3642866,24.5050165 15.1554282,23.7040139 C15.7938685,23.0581934 16.3168085,22.2996535 16.6909445,21.4724011 C16.9761523,20.8420217 17.1745577,20.1730397 17.2790748,19.4890027 C17.333282,19.1354035 17.3612714,18.779102 17.3669401,18.4216425 C17.3952837,15.4299458 17.3952837,12.4382491 17.3669401,9.44655241 C17.3623342,9.15355915 17.342848,8.86095191 17.3060013,8.56988877 C17.2358508,8.02057465 17.1061787,7.47898104 16.9187564,6.95784678 C16.5481634,5.92715901 15.9529472,4.98062478 15.1876691,4.19699325 C14.3795213,3.36935483 13.3857228,2.72739462 12.2966187,2.33596489 C11.7754502,2.14835655 11.2340869,2.01865202 10.6845747,1.94878143 C10.3936982,1.91172299 10.1014045,1.89242172 9.8080479,1.88778942 C9.68439881,1.88663134 9.56039542,1.8869556 9.43674633,1.8869556 Z" id="Shape"></path>
                    </g>
                    <g id="Group" transform="translate(8.249810, 5.650710)">
                        <path d="M1.37789884,0.408933129 C1.47214141,0.416373332 1.56354962,0.434796693 1.65141488,0.469871937 C1.88206118,0.561280148 2.06700337,0.749765296 2.15380574,0.982183073 C2.18710951,1.07075692 2.20376139,1.16287372 2.20907582,1.2571163 C2.23281362,2.44932029 2.20978442,3.64258717 2.20978442,4.83514546 C2.20907582,4.870575 2.20801294,4.90529594 2.20376139,4.94037119 C2.19242394,5.03355088 2.16656038,5.12495909 2.126525,5.20998998 C2.07692364,5.3162786 2.00606457,5.41229265 1.9189079,5.49130052 C1.84060862,5.5621596 1.7495547,5.61849257 1.65141488,5.65746506 C1.42076858,5.74922757 1.15717281,5.73859871 0.934321006,5.62912143 C0.860627564,5.592629 0.792248554,5.54621631 0.731309746,5.49130052 C0.66186785,5.42823594 0.602346224,5.35418821 0.555933528,5.27234597 C0.503852105,5.18058346 0.468068271,5.07960928 0.451416387,4.97544643 C0.445747661,4.94037119 0.442913298,4.90565024 0.441141821,4.8702207 C0.41740403,3.67801671 0.44043323,2.48474983 0.44043323,1.29219154 C0.441141821,1.256762 0.442204707,1.22204105 0.446456252,1.18696581 C0.454959341,1.11716962 0.471611224,1.04808202 0.496411902,0.982183073 C0.587465817,0.738427843 0.786225532,0.543565378 1.03175224,0.457471598 C1.12103468,0.425939308 1.21315148,0.411413197 1.30739405,0.407515948 C1.34282359,0.407515948 1.34282359,0.407515948 1.37789884,0.408933129 Z" id="Path"></path>
                    </g>
                </g>
                <text id="SCROLL-DOWN" transform="translate(9.000000, 86.000000) rotate(-90.000000) translate(-9.000000, -86.000000) " font-family="Roboto-Light, Roboto" font-size="12" font-weight="300" letter-spacing="0.5303689">
                    <tspan x="-35" y="91">SCROLL DOWN</tspan>
                </text>
                <rect id="Rectangle" fill-rule="nonzero" x="9" y="142" width="2" height="105"></rect>
            </g>
        </g>
    </g>
</svg>