<?xml version="1.0" encoding="utf-8"?>
<!-- Generator: Adobe Illustrator 24.0.2, SVG Export Plug-In . SVG Version: 6.00 Build 0)  -->
<svg version="1.1" id="Capa_1" xmlns="http://www.w3.org/2000/svg" xmlns:xlink="http://www.w3.org/1999/xlink" x="0px" y="0px"
	 viewBox="0 0 51 51" style="enable-background:new 0 0 51 51;" xml:space="preserve">
<style type="text/css">
	.st0{fill:#FFFFFF;}
</style>
<g>
	<path class="st0" d="M48.5,21.5h-2.4c-0.3,0-0.6-0.2-0.7-0.6c-0.5-2.3-1.4-4.4-2.6-6.3c-0.2-0.3-0.1-0.7,0.1-0.9l1.7-1.7
		c0.3-0.3,0.3-0.8,0-1L40,6.4c-0.3-0.3-0.8-0.3-1,0l-1.7,1.7c-0.2,0.2-0.6,0.3-0.9,0.1c-1.9-1.2-4-2.1-6.3-2.6
		c-0.3-0.1-0.6-0.4-0.6-0.7V2.5c0-0.4-0.3-0.7-0.7-0.7h-6.5c-0.4,0-0.7,0.3-0.7,0.7v2.4c0,0.3-0.2,0.6-0.6,0.7
		c-2.3,0.5-4.4,1.4-6.3,2.6c-0.3,0.2-0.7,0.1-0.9-0.1L12,6.4c-0.3-0.3-0.8-0.3-1,0L6.4,11c-0.3,0.3-0.3,0.8,0,1l1.7,1.7
		c0.2,0.2,0.3,0.6,0.1,0.9c-1.2,1.9-2.1,4-2.6,6.3c-0.1,0.3-0.4,0.6-0.7,0.6H2.5c-0.4,0-0.7,0.3-0.7,0.7v6.5c0,0.4,0.3,0.7,0.7,0.7
		h2.4c0.3,0,0.6,0.2,0.7,0.6c0.5,2.3,1.4,4.4,2.6,6.3c0.2,0.3,0.1,0.7-0.1,0.9L6.4,39c-0.3,0.3-0.3,0.8,0,1l4.6,4.6
		c0.3,0.3,0.8,0.3,1,0l1.7-1.7c0.2-0.2,0.6-0.3,0.9-0.1c1.9,1.2,4,2.1,6.3,2.6c0.3,0.1,0.6,0.4,0.6,0.7v2.4c0,0.4,0.3,0.7,0.7,0.7
		h6.5c0.4,0,0.7-0.3,0.7-0.7v-2.4c0-0.3,0.2-0.6,0.6-0.7c2.3-0.5,4.4-1.4,6.3-2.6c0.3-0.2,0.7-0.1,0.9,0.1l1.7,1.7
		c0.3,0.3,0.8,0.3,1,0l4.6-4.6c0.3-0.3,0.3-0.8,0-1l-1.7-1.7c-0.2-0.2-0.3-0.6-0.1-0.9c1.2-1.9,2.1-4,2.6-6.3
		c0.1-0.3,0.4-0.6,0.7-0.6h2.4c0.4,0,0.7-0.3,0.7-0.7v-6.5C49.3,21.8,48.9,21.5,48.5,21.5z M37.3,29.5c-0.2,0.5-0.4,1-0.6,1.5
		c-1.2,2.4-3.2,4.4-5.7,5.7c-0.5,0.2-1,0.5-1.5,0.6c-1.3,0.4-2.6,0.7-4,0.7s-2.7-0.2-4-0.7c-0.5-0.2-1-0.4-1.5-0.6
		c-2.4-1.2-4.4-3.2-5.7-5.7c-0.2-0.5-0.5-1-0.6-1.5c-0.4-1.3-0.7-2.6-0.7-4s0.2-2.7,0.7-4c0.2-0.5,0.4-1,0.6-1.5
		c1.2-2.4,3.2-4.4,5.7-5.7c0.5-0.2,1-0.5,1.5-0.6c1.3-0.4,2.6-0.7,4-0.7s2.7,0.2,4,0.7c0.5,0.2,1,0.4,1.5,0.6
		c2.4,1.2,4.4,3.2,5.7,5.7c0.2,0.5,0.5,1,0.6,1.5c0.4,1.3,0.7,2.6,0.7,4S37.7,28.2,37.3,29.5z"/>
</g>
</svg>
