<?xml version="1.0" encoding="utf-8"?>
<!-- Generator: Adobe Illustrator 24.0.2, SVG Export Plug-In . SVG Version: 6.00 Build 0)  -->
<svg version="1.1" xmlns="http://www.w3.org/2000/svg" xmlns:xlink="http://www.w3.org/1999/xlink" x="0px" y="0px"
	 viewBox="0 0 300 300" style="enable-background:new 0 0 300 300;" xml:space="preserve">
<style type="text/css">
	.st0{display:none;}
	.st1{display:inline;fill:#2C2F49;}
	.st2{display:inline;}
	.st3{fill:#58C1EF;}
	.st4{fill:#368F43;}
	.st5{fill:#FFE081;}
	.st6{fill:#1E5F30;}
	.st7{fill:#4E352E;}
	.st8{fill:#327E3E;}
	.st9{fill:#66BB6A;}
	.st10{display:inline;fill:#E63B34;}
	.st11{display:inline;fill:#FAFBFC;}
	.st12{display:none;fill:#FAFBFC;}
	.st13{fill:#04F898;}
	.st14{clip-path:url(#SVGID_2_);fill:#58C1EF;}
	.st15{clip-path:url(#SVGID_2_);fill:#368F43;}
	.st16{clip-path:url(#SVGID_2_);}
	.st17{fill:#E63B34;}
	.st18{fill:#FAFBFC;}
	.st19{display:inline;fill:#04F898;}
</style>
<g id="Capa_4" class="st0">
	<rect class="st1" width="300" height="300"/>
</g>
<g id="Capa_1" class="st0">
	<g class="st2">
		<g>
			<g>
				<circle class="st3" cx="158.91" cy="153.59" r="103.15"/>
				<path class="st4" d="M175.04,109.72h-7.79c-3.69,0-6.67,2.99-6.67,6.67s2.99,6.67,6.67,6.67h7.79c3.69,0,6.67-2.99,6.67-6.67
					S178.73,109.72,175.04,109.72z"/>
				<path class="st4" d="M262.06,153.59c0,7.86-0.88,15.51-2.54,22.87h-67.11c-3.69,0-6.67-2.99-6.67-6.67
					c0-3.69,2.99-6.67,6.67-6.67h8.36c3.69,0,6.67-2.99,6.67-6.67c0-3.69-2.99-6.67-6.67-6.67h-28.38c-3.69,0-6.67-2.99-6.67-6.67
					c0-3.69,2.99-6.67,6.67-6.67h41.73c3.69,0,6.67-2.99,6.67-6.67c0-3.69-2.99-6.67-6.67-6.67h-14.66c-3.69,0-6.67-2.99-6.67-6.67
					s2.99-6.67,6.67-6.67h35.05c3.69,0,6.67-2.99,6.67-6.67c0-3.69-2.99-6.67-6.67-6.67h-20.59c-3.69,0-6.67-2.99-6.67-6.67
					c0-3.69,2.99-6.67,6.67-6.67h20.24C251.47,101.48,262.06,126.3,262.06,153.59z"/>
				<path class="st4" d="M240.65,216.5c-17.66,22.92-44.75,38.2-75.46,40.04h-1.46c-3.69,0-6.67-2.99-6.67-6.67
					c0-3.69,2.99-6.67,6.67-6.67h18.17c3.69,0,6.67-2.99,6.67-6.67c0-3.69-2.99-6.67-6.67-6.67h-6.43c-3.69,0-6.67-2.99-6.67-6.67
					c0-3.69,2.99-6.67,6.67-6.67h5.19c3.69,0,6.67-2.99,6.67-6.67c0-3.69-2.99-6.67-6.67-6.67h-23.97c-3.69,0-6.67-2.99-6.67-6.67
					c0-3.69,2.99-6.67,6.67-6.67h54.87c3.69,0,6.67,2.99,6.67,6.67c0,3.69-2.99,6.67-6.67,6.67h-3.71c-3.69,0-6.67,2.99-6.67,6.67
					c0,3.69,2.99,6.67,6.67,6.67H240.65z"/>
				<path class="st4" d="M255.52,189.81c-1.73,4.61-3.78,9.08-6.13,13.35h-8.13c-3.69,0-6.67-2.99-6.67-6.67
					c0-3.69,2.99-6.67,6.67-6.67H255.52z"/>
				<path class="st4" d="M126.41,216.5h-19.16c-3.69,0-6.67,2.99-6.67,6.67s2.99,6.67,6.67,6.67h19.16c3.69,0,6.67-2.99,6.67-6.67
					S130.09,216.5,126.41,216.5z"/>
				<path class="st5" d="M90.23,116.39H62.67c6-15.51,15.63-29.21,27.86-40.04h17.67c1.85,0,3.51,0.75,4.72,1.96
					c1.21,1.21,1.96,2.87,1.96,4.72c0,3.69-2.99,6.67-6.67,6.67H88.76c-1.85,0-3.51,0.75-4.72,1.96c-1.21,1.21-1.96,2.87-1.96,4.72
					c0,3.69,2.99,6.67,6.67,6.67h1.48c1.85,0,3.51,0.75,4.72,1.96c1.21,1.21,1.95,2.87,1.95,4.72
					C96.91,113.4,93.92,116.39,90.23,116.39z"/>
				<path class="st5" d="M129.21,136.41c0,3.69-2.99,6.67-6.67,6.67H94.53c-1.85,0-3.51,0.75-4.72,1.96
					c-1.21,1.21-1.96,2.87-1.96,4.72c0,3.69,2.99,6.67,6.67,6.67h7.95c1.85,0,3.51,0.75,4.72,1.96c1.21,1.21,1.96,2.87,1.96,4.72
					c0,3.69-2.99,6.67-6.67,6.67H57.03c-0.84-5.27-1.27-10.69-1.27-16.2c0-8.21,0.96-16.2,2.77-23.85h64
					C126.22,129.74,129.21,132.73,129.21,136.41z"/>
				<g>
					<polygon class="st6" points="221.44,147.07 214.41,162.65 228.46,162.65 					"/>
					<path class="st7" d="M220.12,162.65v6.44c0,0.39,0.31,0.7,0.7,0.7h1.24c0.39,0,0.7-0.31,0.7-0.7v-6.44H220.12z"/>
					<polygon class="st8" points="221.44,143.47 216.3,154.86 226.57,154.86 					"/>
				</g>
				<g>
					<polygon class="st6" points="123.98,202.52 118.16,215.42 129.79,215.42 					"/>
					<path class="st7" d="M122.89,215.42v5.33c0,0.32,0.26,0.58,0.58,0.58h1.03c0.32,0,0.58-0.26,0.58-0.58v-5.33H122.89z"/>
					<polygon class="st8" points="123.98,199.54 119.73,208.97 128.23,208.97 					"/>
				</g>
				<g>
					<polygon class="st6" points="244.18,179.44 238.36,192.34 249.99,192.34 					"/>
					<path class="st7" d="M243.08,192.34v5.33c0,0.32,0.26,0.58,0.58,0.58h1.03c0.32,0,0.58-0.26,0.58-0.58v-5.33H243.08z"/>
					<polygon class="st8" points="244.18,176.46 239.92,185.89 248.43,185.89 					"/>
				</g>
				<g>
					<polygon class="st6" points="187.83,132.98 183.64,142.28 192.02,142.28 					"/>
					<path class="st7" d="M187.04,142.28v3.84c0,0.23,0.19,0.42,0.42,0.42h0.74c0.23,0,0.42-0.19,0.42-0.42v-3.84H187.04z"/>
					<polygon class="st8" points="187.83,130.83 184.76,137.63 190.89,137.63 					"/>
					<polygon class="st4" points="187.83,129.47 185.89,133.78 189.77,133.78 					"/>
				</g>
				<g>
					<polygon class="st6" points="211.58,213.7 205.22,227.82 217.95,227.82 					"/>
					<path class="st7" d="M210.39,227.82v5.84c0,0.35,0.28,0.63,0.63,0.63h1.13c0.35,0,0.63-0.28,0.63-0.63v-5.84H210.39z"/>
					<polygon class="st8" points="211.58,210.44 206.93,220.76 216.24,220.76 					"/>
					<polygon class="st4" points="211.58,208.37 208.63,214.91 214.53,214.91 					"/>
				</g>
				<g>
					<polygon class="st6" points="168.22,236.27 164.36,244.83 172.08,244.83 					"/>
					<path class="st7" d="M167.5,244.83v3.54c0,0.21,0.17,0.38,0.38,0.38h0.68c0.21,0,0.38-0.17,0.38-0.38v-3.54H167.5z"/>
					<polygon class="st8" points="168.22,234.29 165.4,240.55 171.04,240.55 					"/>
					<polygon class="st4" points="168.22,233.04 166.43,237 170.01,237 					"/>
				</g>
				<g>
					<polygon class="st6" points="234.61,103.61 230.42,112.9 238.8,112.9 					"/>
					<path class="st7" d="M233.83,112.9v3.84c0,0.23,0.19,0.42,0.42,0.42h0.74c0.23,0,0.42-0.19,0.42-0.42v-3.84H233.83z"/>
					<polygon class="st8" points="234.61,101.46 231.55,108.26 237.68,108.26 					"/>
					<polygon class="st4" points="234.61,100.1 232.67,104.41 236.55,104.41 					"/>
				</g>
				<g>
					<g>
						<path class="st9" d="M237.68,130.8c0,1.54,1.25,2.8,2.8,2.8C240.47,132.05,239.22,130.8,237.68,130.8z"/>
					</g>
					<g>
						<path class="st9" d="M243.27,130.8c0,1.54-1.25,2.8-2.8,2.8C240.47,132.05,241.72,130.8,243.27,130.8z"/>
					</g>
				</g>
				<g>
					<g>
						<path class="st9" d="M253.8,151.81c0,1.54,1.25,2.8,2.8,2.8C256.6,153.07,255.34,151.81,253.8,151.81z"/>
					</g>
					<g>
						<path class="st9" d="M259.39,151.81c0,1.54-1.25,2.8-2.8,2.8C256.6,153.07,257.85,151.81,259.39,151.81z"/>
					</g>
				</g>
				<g>
					<g>
						<path class="st9" d="M195.33,169.78c0,1.54,1.25,2.8,2.8,2.8C198.13,171.04,196.88,169.78,195.33,169.78z"/>
					</g>
					<g>
						<path class="st9" d="M200.93,169.78c0,1.54-1.25,2.8-2.8,2.8C198.13,171.04,199.38,169.78,200.93,169.78z"/>
					</g>
				</g>
				<g>
					<g>
						<path class="st9" d="M189.22,216.98c0,1.54,1.25,2.8,2.8,2.8C192.02,218.23,190.77,216.98,189.22,216.98z"/>
					</g>
					<g>
						<path class="st9" d="M194.81,216.98c0,1.54-1.25,2.8-2.8,2.8C192.02,218.23,193.27,216.98,194.81,216.98z"/>
					</g>
				</g>
				<g>
					<g>
						<path class="st9" d="M102.77,221.78c0,1.54,1.25,2.8,2.8,2.8C105.57,223.03,104.31,221.78,102.77,221.78z"/>
					</g>
					<g>
						<path class="st9" d="M108.36,221.78c0,1.54-1.25,2.8-2.8,2.8C105.57,223.03,106.82,221.78,108.36,221.78z"/>
					</g>
				</g>
				<g>
					<g>
						<path class="st9" d="M176.13,245.39c0,1.54,1.25,2.8,2.8,2.8C178.92,246.64,177.67,245.39,176.13,245.39z"/>
					</g>
					<g>
						<path class="st9" d="M181.72,245.39c0,1.54-1.25,2.8-2.8,2.8C178.92,246.64,180.17,245.39,181.72,245.39z"/>
					</g>
				</g>
				<g>
					<g>
						<path class="st9" d="M205.84,196.01c0,1.54,1.25,2.8,2.8,2.8C208.63,197.26,207.38,196.01,205.84,196.01z"/>
					</g>
					<g>
						<path class="st9" d="M211.43,196.01c0,1.54-1.25,2.8-2.8,2.8C208.63,197.26,209.89,196.01,211.43,196.01z"/>
					</g>
				</g>
				<g>
					<g>
						<path class="st9" d="M222.75,223.18c0,1.54,1.25,2.8,2.8,2.8C225.55,224.43,224.3,223.18,222.75,223.18z"/>
					</g>
					<g>
						<path class="st9" d="M228.35,223.18c0,1.54-1.25,2.8-2.8,2.8C225.55,224.43,226.8,223.18,228.35,223.18z"/>
					</g>
				</g>
				<g>
					<g>
						<path class="st9" d="M214.6,83.02c0,1.54,1.25,2.8,2.8,2.8C217.4,84.28,216.14,83.02,214.6,83.02z"/>
					</g>
					<g>
						<path class="st9" d="M220.19,83.02c0,1.54-1.25,2.8-2.8,2.8C217.4,84.28,218.65,83.02,220.19,83.02z"/>
					</g>
				</g>
				<g class="st0">
					<path class="st10" d="M176.98,162.2c0,9.34-16.92,34.88-16.92,34.88s-16.92-25.54-16.92-34.88c0-9.34,7.57-16.92,16.92-16.92
						C169.41,145.28,176.98,152.86,176.98,162.2z"/>
					<path class="st11" d="M170.01,162.2c0,5.49-4.45,9.94-9.94,9.94c-5.49,0-9.94-4.45-9.94-9.94c0-5.49,4.45-9.94,9.94-9.94
						C165.56,152.26,170.01,156.71,170.01,162.2z"/>
				</g>
				<g class="st0">
					<path class="st10" d="M280.55,67.4c0,14.77-26.74,55.14-26.74,55.14s-26.75-40.37-26.75-55.14c0-14.77,11.97-26.75,26.75-26.75
						C268.57,40.65,280.55,52.62,280.55,67.4z"/>
					<path class="st11" d="M269.52,67.4c0,8.68-7.04,15.72-15.72,15.72c-8.68,0-15.72-7.04-15.72-15.72
						c0-8.68,7.04-15.72,15.72-15.72C262.48,51.67,269.52,58.71,269.52,67.4z"/>
				</g>
				<g class="st0">
					<path class="st10" d="M88.77,105.69c0,13.31-24.09,49.67-24.09,49.67s-24.09-36.37-24.09-49.67
						c0-13.31,10.79-24.09,24.09-24.09C77.98,81.59,88.77,92.38,88.77,105.69z"/>
					
						<ellipse transform="matrix(0.2306 -0.9731 0.9731 0.2306 -53.0735 144.2554)" class="st11" cx="64.68" cy="105.69" rx="14.16" ry="14.16"/>
				</g>
			</g>
			<path class="st12" d="M12.09,125.79h-1.26c-1.84,0-3.34-1.49-3.34-3.34v-1.2c0-0.52-0.39-0.99-0.91-1.02
				c-0.56-0.03-1.02,0.41-1.02,0.97v1.26c0,1.84-1.49,3.34-3.34,3.34H0.97c-0.53,0-0.97,0.43-0.97,0.97l0,0
				c0,0.53,0.43,0.97,0.97,0.97h1.26c1.84,0,3.34,1.49,3.34,3.34v1.2c0,0.52,0.39,0.99,0.91,1.02c0.56,0.03,1.02-0.41,1.02-0.97
				v-1.26c0-1.84,1.49-3.34,3.34-3.34h1.26c0.53,0,0.97-0.43,0.97-0.97l0,0C13.05,126.22,12.62,125.79,12.09,125.79z"/>
			<path class="st12" d="M170.96,11.83h-1.26c-1.84,0-3.34-1.49-3.34-3.34V7.3c0-0.52-0.39-0.99-0.91-1.02
				c-0.56-0.03-1.02,0.41-1.02,0.97V8.5c0,1.84-1.49,3.34-3.34,3.34h-1.26c-0.53,0-0.97,0.43-0.97,0.97l0,0
				c0,0.53,0.43,0.97,0.97,0.97h1.26c1.84,0,3.34,1.49,3.34,3.34v1.2c0,0.52,0.39,0.99,0.91,1.02c0.56,0.03,1.02-0.41,1.02-0.97
				V17.1c0-1.84,1.49-3.34,3.34-3.34h1.26c0.53,0,0.97-0.43,0.97-0.97l0,0C171.93,12.27,171.49,11.83,170.96,11.83z"/>
			<path class="st12" d="M295.83,191.37h-1.26c-1.84,0-3.34-1.49-3.34-3.34v-1.2c0-0.52-0.39-0.99-0.91-1.02
				c-0.56-0.03-1.02,0.41-1.02,0.97v1.26c0,1.84-1.49,3.34-3.34,3.34h-1.26c-0.53,0-0.97,0.43-0.97,0.97l0,0
				c0,0.53,0.43,0.97,0.97,0.97h1.26c1.84,0,3.34,1.49,3.34,3.34v1.2c0,0.52,0.39,0.99,0.91,1.02c0.56,0.03,1.02-0.41,1.02-0.97
				v-1.26c0-1.84,1.49-3.34,3.34-3.34h1.26c0.53,0,0.97-0.43,0.97-0.97l0,0C296.8,191.81,296.37,191.37,295.83,191.37z"/>
			<path class="st12" d="M32.21,69.71h-0.62c-0.9,0-1.64-0.73-1.64-1.64v-0.59c0-0.26-0.19-0.49-0.45-0.5
				c-0.27-0.01-0.5,0.2-0.5,0.47v0.62c0,0.9-0.73,1.64-1.64,1.64h-0.62c-0.26,0-0.47,0.21-0.47,0.47l0,0c0,0.26,0.21,0.47,0.47,0.47
				h0.62c0.9,0,1.64,0.73,1.64,1.64v0.59c0,0.26,0.19,0.49,0.45,0.5c0.27,0.01,0.5-0.2,0.5-0.47V72.3c0-0.9,0.73-1.64,1.64-1.64
				h0.62c0.26,0,0.47-0.21,0.47-0.47l0,0C32.68,69.92,32.47,69.71,32.21,69.71z"/>
			<path class="st12" d="M200.86,33.41h-0.62c-0.9,0-1.64-0.73-1.64-1.64v-0.59c0-0.26-0.19-0.49-0.45-0.5
				c-0.27-0.01-0.5,0.2-0.5,0.47v0.62c0,0.9-0.73,1.64-1.64,1.64h-0.62c-0.26,0-0.47,0.21-0.47,0.47l0,0c0,0.26,0.21,0.47,0.47,0.47
				h0.62c0.9,0,1.64,0.73,1.64,1.64v0.59c0,0.26,0.19,0.49,0.45,0.5c0.27,0.01,0.5-0.2,0.5-0.47V36c0-0.9,0.73-1.64,1.64-1.64h0.62
				c0.26,0,0.47-0.21,0.47-0.47l0,0C201.33,33.62,201.12,33.41,200.86,33.41z"/>
			<path class="st12" d="M286.47,151.34h-0.62c-0.9,0-1.64-0.73-1.64-1.64v-0.59c0-0.26-0.19-0.49-0.45-0.5
				c-0.27-0.01-0.5,0.2-0.5,0.47v0.62c0,0.9-0.73,1.64-1.64,1.64h-0.62c-0.26,0-0.47,0.21-0.47,0.47l0,0c0,0.26,0.21,0.47,0.47,0.47
				h0.62c0.9,0,1.64,0.73,1.64,1.64v0.59c0,0.26,0.19,0.49,0.45,0.5c0.27,0.01,0.5-0.2,0.5-0.47v-0.62c0-0.9,0.73-1.64,1.64-1.64
				h0.62c0.26,0,0.47-0.21,0.47-0.47l0,0C286.95,151.55,286.74,151.34,286.47,151.34z"/>
			<path class="st12" d="M65.67,259.47h-0.62c-0.9,0-1.64-0.73-1.64-1.64v-0.59c0-0.26-0.19-0.49-0.45-0.5
				c-0.27-0.01-0.5,0.2-0.5,0.47v0.62c0,0.9-0.73,1.64-1.64,1.64h-0.62c-0.26,0-0.47,0.21-0.47,0.47l0,0c0,0.26,0.21,0.47,0.47,0.47
				h0.62c0.9,0,1.64,0.73,1.64,1.64v0.59c0,0.26,0.19,0.49,0.45,0.5c0.27,0.01,0.5-0.2,0.5-0.47v-0.62c0-0.9,0.73-1.64,1.64-1.64
				h0.62c0.26,0,0.47-0.21,0.47-0.47l0,0C66.15,259.68,65.94,259.47,65.67,259.47z"/>
			<path class="st12" d="M259.32,225.5h-0.62c-0.9,0-1.64-0.73-1.64-1.64v-0.59c0-0.26-0.19-0.49-0.45-0.5
				c-0.27-0.01-0.5,0.2-0.5,0.47v0.62c0,0.9-0.73,1.64-1.64,1.64h-0.62c-0.26,0-0.47,0.21-0.47,0.47l0,0c0,0.26,0.21,0.47,0.47,0.47
				h0.62c0.9,0,1.64,0.73,1.64,1.64v0.59c0,0.26,0.19,0.49,0.45,0.5c0.27,0.01,0.5-0.2,0.5-0.47v-0.62c0-0.9,0.73-1.64,1.64-1.64
				h0.62c0.26,0,0.47-0.21,0.47-0.47l0,0C259.8,225.71,259.58,225.5,259.32,225.5z"/>
			<path class="st12" d="M181.65,275.21h-0.62c-0.9,0-1.64-0.73-1.64-1.64v-0.59c0-0.26-0.19-0.49-0.45-0.5
				c-0.27-0.01-0.5,0.2-0.5,0.47v0.62c0,0.9-0.73,1.64-1.64,1.64h-0.62c-0.26,0-0.47,0.21-0.47,0.47l0,0c0,0.26,0.21,0.47,0.47,0.47
				h0.62c0.9,0,1.64,0.73,1.64,1.64v0.59c0,0.26,0.19,0.49,0.45,0.5c0.27,0.01,0.5-0.2,0.5-0.47v-0.62c0-0.9,0.73-1.64,1.64-1.64
				h0.62c0.26,0,0.47-0.21,0.47-0.47l0,0C182.12,275.42,181.91,275.21,181.65,275.21z"/>
			<path class="st12" d="M35.41,167.51h-0.62c-0.9,0-1.64-0.73-1.64-1.64v-0.59c0-0.26-0.19-0.49-0.45-0.5
				c-0.27-0.01-0.5,0.2-0.5,0.47v0.62c0,0.9-0.73,1.64-1.64,1.64h-0.62c-0.26,0-0.47,0.21-0.47,0.47l0,0c0,0.26,0.21,0.47,0.47,0.47
				h0.62c0.9,0,1.64,0.73,1.64,1.64v0.59c0,0.26,0.19,0.49,0.45,0.5c0.27,0.01,0.5-0.2,0.5-0.47v-0.62c0-0.9,0.73-1.64,1.64-1.64
				h0.62c0.26,0,0.47-0.21,0.47-0.47l0,0C35.88,167.72,35.67,167.51,35.41,167.51z"/>
			<path class="st12" d="M106.89,9h-0.62c-0.9,0-1.64-0.73-1.64-1.64V6.78c0-0.26-0.19-0.49-0.45-0.5c-0.27-0.01-0.5,0.2-0.5,0.47
				v0.62c0,0.9-0.73,1.64-1.64,1.64h-0.62c-0.26,0-0.47,0.21-0.47,0.47l0,0c0,0.26,0.21,0.47,0.47,0.47h0.62
				c0.9,0,1.64,0.73,1.64,1.64v0.59c0,0.26,0.19,0.49,0.45,0.5c0.27,0.01,0.5-0.2,0.5-0.47v-0.62c0-0.9,0.73-1.64,1.64-1.64h0.62
				c0.26,0,0.47-0.21,0.47-0.47l0,0C107.37,9.21,107.16,9,106.89,9z"/>
			<path class="st12" d="M299.53,91.05h-0.62c-0.9,0-1.64-0.73-1.64-1.64v-0.59c0-0.26-0.19-0.49-0.45-0.5
				c-0.27-0.01-0.5,0.2-0.5,0.47v0.62c0,0.9-0.73,1.64-1.64,1.64h-0.62c-0.26,0-0.47,0.21-0.47,0.47l0,0c0,0.26,0.21,0.47,0.47,0.47
				h0.62c0.9,0,1.64,0.73,1.64,1.64v0.59c0,0.26,0.19,0.49,0.45,0.5c0.27,0.01,0.5-0.2,0.5-0.47v-0.62c0-0.9,0.73-1.64,1.64-1.64
				h0.62c0.26,0,0.47-0.21,0.47-0.47l0,0C300,91.26,299.79,91.05,299.53,91.05z"/>
			<path class="st12" d="M263.04,126.75c-0.72,0-1.41,0.14-2.05,0.38c0-0.13,0.02-0.25,0.02-0.38c0-6.47-5.25-11.72-11.72-11.72
				c-5.48,0-10.07,3.77-11.35,8.85c-1.12-0.62-2.4-0.98-3.77-0.98c-3.56,0-6.56,2.4-7.48,5.67c-0.95-0.77-2.16-1.23-3.48-1.23
				c-3.07,0-5.56,2.49-5.56,5.56c0,3.07,2.49,5.56,5.56,5.56h39.84c3.24,0,5.86-2.62,5.86-5.86
				C268.9,129.38,266.27,126.75,263.04,126.75z"/>
			<path class="st12" d="M138.21,55.82c-0.89,0-1.73,0.17-2.51,0.46c-0.8-6-5.93-10.64-12.15-10.64c-2.19,0-4.24,0.58-6.02,1.59
				c-1.53-9.38-9.67-16.55-19.49-16.55c-9.33,0-17.14,6.47-19.21,15.16c-1.1-0.32-2.26-0.5-3.46-0.5c-6.86,0-12.42,5.56-12.42,12.42
				s5.56,12.42,12.42,12.42h62.84c3.97,0,7.18-3.22,7.18-7.18C145.39,59.04,142.17,55.82,138.21,55.82z"/>
			<path class="st12" d="M93.41,183.93c-2.97,0-5.65,1.2-7.6,3.14c-2.03-4.61-6.63-7.83-11.99-7.83c-6.06,0-11.14,4.11-12.64,9.69
				c-0.72-0.2-1.47-0.32-2.26-0.32c-4.65,0-8.41,3.77-8.41,8.41s3.77,8.41,8.41,8.41h34.48c5.94,0,10.76-4.82,10.76-10.76
				C104.17,188.74,99.35,183.93,93.41,183.93z"/>
			<path class="st12" d="M158.69,89.85c2.3,0,4.38,0.93,5.89,2.43c1.57-3.57,5.14-6.07,9.3-6.07c4.69,0,8.63,3.19,9.8,7.52
				c0.56-0.16,1.14-0.24,1.75-0.24c3.6,0,6.52,2.92,6.52,6.52c0,3.6-2.92,6.52-6.52,6.52h-26.73c-4.61,0-8.34-3.73-8.34-8.34
				C150.35,93.58,154.09,89.85,158.69,89.85z"/>
			<path class="st12" d="M127.53,288.17h1.26c1.84,0,3.34,1.49,3.34,3.34v1.2c0,0.52,0.39,0.99,0.91,1.02
				c0.56,0.03,1.02-0.41,1.02-0.97v-1.26c0-1.84,1.49-3.34,3.34-3.34h1.26c0.53,0,0.97-0.43,0.97-0.97c0-0.53-0.43-0.97-0.97-0.97
				h-1.26c-1.84,0-3.34-1.49-3.34-3.34v-1.2c0-0.52-0.39-0.99-0.91-1.02c-0.56-0.03-1.02,0.41-1.02,0.97v1.26
				c0,1.84-1.49,3.34-3.34,3.34h-1.26c-0.53,0-0.97,0.43-0.97,0.97C126.57,287.73,127,288.17,127.53,288.17z"/>
		</g>
		<polygon class="st13" points="23.23,89.27 17.94,97.82 53.71,119.91 136.75,32.51 17.94,77.14 43.91,99.38 		"/>
	</g>
</g>
<g id="Capa_2">
	<g>
		<defs>
			<circle id="SVGID_1_" cx="156.35" cy="146.92" r="103.15"/>
		</defs>
		<clipPath id="SVGID_2_">
			<use xlink:href="#SVGID_1_"  style="overflow:visible;"/>
		</clipPath>
		<rect x="12" y="31" class="st14" width="288" height="237"/>
		<path class="st15" d="M77.61,83.07c11.52-4.15,31.32,1.69,36.39,4.17s10.91,1.18,15.94-3.38c5.04-4.57,5.1,2.13,10.6,1.59
			c5.5-0.54,2.5-9.69,7.68-10.36c5.18-0.67,17.33,8.57,21.87,13.12c4.55,4.55,0.42,13.75-4.49,11.91c-4.91-1.84-9.06-3.08-6.91-5.45
			s3.56-4.3-0.47-7.6c-4.03-3.3-11.5-6.92-9.92-1.76c1.59,5.15-5.85,4.01-2.07,7.47c3.78,3.47,1.26,5.34-3.91,3.7
			c-5.16-1.63-9.19,0.13-10.56,7.8c-1.36,7.67,10.19,5.96,13.44,9.32c3.25,3.36,3.66,7.85,6.99,5.8c3.33-2.05-0.77-5.14,3.19-8.54
			c3.96-3.4-4.68-8.29-1.74-11.04c2.94-2.74,11.19,9.96,13.66,5.82c2.47-4.15,6.85,3.51,12.59,9.25c5.74,5.74,1.78,6.42-4.78,7.02
			c-6.56,0.6-4.2,2.53,0,4.7c4.2,2.17-0.46,5.14-6.02,4.88c-5.56-0.26-6.54,2.98-9.49,7.82c-2.95,4.84-7.98,7.95-10.3,11.68
			c-2.31,3.73,1.85,10.25-0.33,11.17c-2.18,0.92-2.58-4.15-8.44-6.6c-5.86-2.46-10.11,0.46-10.26,7.4c-0.15,6.94,4.8,5.96,7.37,8.26
			c2.57,2.3,8.29-0.46,8.57,5.22c0.28,5.68,4.94,3.69,7.36,5.38c2.42,1.69,5.77-3.15,14.81-4.17c9.04-1.01,18.09,6.93,21.36,14.2
			c3.27,7.27,11.16,3.79,16.99,7.01c5.84,3.22-1.76,11.12-3.78,18.39c-2.02,7.27-40.75,58.38-43.79,49.84
			c-3.04-8.54,3.35-26.47,4.57-36.29c1.23-9.83-4.05-15.98-9.06-21.13c-5.02-5.15-4.57-15.86-1.79-19.55
			c2.78-3.69,1.76-7.36-4.35-6.85c-6.11,0.51-4.76-7.44-13.36-9.52s-15.96-2.53-16.87-7.59c-0.91-5.06-11.07-20.43-9.92-14.55
			c1.15,5.88,6.22,15,1.02,8.67c-5.19-6.33-17.22-21.61-15.17-30.21c2.05-8.59-11.88-6.45-13.41-15.41
			c-1.54-8.95-10.13-13.16-25.83-8.21C39.32,111.4,34.47,93.1,39.44,87.24C50.09,74.67,66.1,87.22,77.61,83.07z M187.07,49.75
			c-17.13,4.3-34.21,16.65-22.73,17.77c11.48,1.12,17.76-1.56,18.19,10.84c0.43,12.39,5.19,35.72,14.71,23.21
			c9.52-12.51,11.67-15.58,21.04-16.12c9.37-0.53,13.2-13.34,10.44-20.14c-2.76-6.8,4.57-10.88,9.96-12.37
			C244.06,51.44,233.6,38.06,187.07,49.75z M276.51,81.57c-8.94,2.78-6.67,9.03-13.39,12.64c-6.72,3.6-10.97,9.31-8.7,12.6
			c2.28,3.29,7.1-4.53,8.14,0.09c1.05,4.62,6.6,5.35,7.43-3.49c0.83-8.83,8.57-13.47,8.7-10.31c0.12,3.16-5.31,4.56-4.2,8.24
			c1.1,3.68,10.63-0.87,10.24,1.94c-0.39,2.81-8.1,2.43-10.79,7.08c-2.69,4.64-9.13,6.59-12.45,4.94c-3.32-1.65,0.13-7.89-3.17-6.48
			c-3.3,1.41-1.18,5.8-3.49,8.07c-2.31,2.27-3.6,5.11-6.78,5.97c-3.18,0.85-9.18,1.62-5.1,3.86c4.08,2.25,3.14,4.94-0.53,6.43
			c-3.68,1.49-6.08-2.24-6.8,1.31c-0.71,3.56,0.05,11.45,6.5,8.04c6.45-3.41,7.92-9.8,13.05-9.81c5.13-0.01,2.99,3.35,7.33,3.73
			c4.34,0.37,4.41,4.74,4.17,5.53c-0.23,0.79,1.86-0.11,2.09-1.56s-1.52-3.18,0.08-2.6c1.6,0.58,2.35,0.53-0.61-1.37
			c-2.96-1.91-6.45-8.04-3.42-6.1c3.03,1.94,4.94,3.59,6.56,5.15c1.62,1.55-0.22,2.15,2.54,4.92c2.76,2.77,1.86,0.7,2.58-2.06
			c0.72-2.77,5.5-3.56,5.02-0.31c-0.48,3.25,2.76,6.66,7.91,5.6c5.14-1.06,3.76,0.19,2.27,4.51c-1.5,4.33-2.4,4.15-9.93,3.16
			c-7.54-0.99-10.53-1.52-13.29,1.32c-2.76,2.84-10.81-1.83-8.96-5.3c1.85-3.47-1.72-5.21-8.85-3.32
			c-7.13,1.89-9.48-1.01-12.74,2.93c-3.26,3.94-12.31,12.55-11.41,22.48c0.89,9.92,1.98,19.71,15.41,17.19
			c13.43-2.51,12.36-2.82,11.9,2.09c-0.46,4.91,8.79,1.79,5.47,6.88c-3.32,5.09,7.57,9.85,4.04,14.46
			c-3.52,4.61,0.88,32.8,9.68,30.12c8.8-2.67,29.82-16.24,26.49-26.22c-3.33-9.98-2.6-14.49,3.96-20.9
			c6.56-6.41,11.78-16.59,6.79-14.62c-4.99,1.98-9.6,4.15-12.82-0.93c-3.22-5.08-9.78-18.44-6.5-19.21
			c3.28-0.77,8.06,11.36,10.27,15.43c2.22,4.07,9.01,2.29,15.13-2.19c6.12-4.48,7.35-6.79,3.05-8.78c-4.3-2-5.92,1.2-8.57-3.86
			c-2.65-5.06,1.47-4.5,3.41-1.86c1.94,2.64,7.55,2.8,11.58,1.57c4.03-1.23,12.58,2.28,13.37,7.21c0.79,4.92,6.25,21.96,10.66,11.14
			c4.41-10.82,11.78-17.47,14.08-9.62c2.3,7.85,28.84,21.72,22.48,10.8c-6.36-10.93-7.7-12,3.95-12.62
			c11.65-0.61,16.19-9.96,11.77-15.8c-4.42-5.85,7.49-13.71,15.51-15.3c8.02-1.6,16.36-14.84,8.43-17.97
			c-7.93-3.13-1.48-10.38,7.65-10.02c9.13,0.36,11.13,1.05,14.97-3.09c3.84-4.15,7.69-3.96,10.83,1.86
			c3.14,5.82,26.4-6.45,29.51-11.14c3.11-4.69-40.9-17.62-54.01-15.64c-13.11,1.98-18.12,5.54-25.64-0.2
			c-7.52-5.74-22.26-20.33-47.75-8.97c-25.49,11.36-37.48,15.7-47.1,18.08c-9.62,2.39-20.92,12.63-22.92,9.25
			c-2-3.38-3.12-6.12,2.3-5.21s7.83-2.24,0.61-6.57C287.26,80.46,281.63,79.98,276.51,81.57z M241.8,107.47
			c-3.67,1.36-1.27,3.76,0.6,6.57c1.87,2.81,0.78,3.34-1.29,5.76c-2.06,2.42,4.76,3.65,8.41-0.65
			C253.17,114.86,245.47,106.11,241.8,107.47z M236.28,113.37c-3.59,1.11-5.19,6.29,0,5.02
			C241.47,117.11,240.58,112.04,236.28,113.37z"/>
		<g class="st16">
			<polygon class="st6" points="146.88,124.4 139.86,139.98 153.9,139.98 			"/>
			<path class="st7" d="M145.56,139.98v6.44c0,0.39,0.31,0.7,0.7,0.7h1.24c0.39,0,0.7-0.31,0.7-0.7v-6.44H145.56z"/>
			<polygon class="st8" points="146.88,120.8 141.75,132.19 152.01,132.19 			"/>
		</g>
		<g class="st16">
			<polygon class="st6" points="85.42,91.85 79.61,104.76 91.24,104.76 			"/>
			<path class="st7" d="M84.33,104.76v5.33c0,0.32,0.26,0.58,0.58,0.58h1.03c0.32,0,0.58-0.26,0.58-0.58v-5.33H84.33z"/>
			<polygon class="st8" points="85.42,88.87 81.17,98.3 89.67,98.3 			"/>
		</g>
		<g class="st16">
			<polygon class="st6" points="246.62,141.77 240.8,154.67 252.44,154.67 			"/>
			<path class="st7" d="M245.53,154.67v5.33c0,0.32,0.26,0.58,0.58,0.58h1.03c0.32,0,0.58-0.26,0.58-0.58v-5.33H245.53z"/>
			<polygon class="st8" points="246.62,138.79 242.37,148.22 250.87,148.22 			"/>
		</g>
		<g class="st16">
			<polygon class="st6" points="195.27,81.31 191.08,90.61 199.46,90.61 			"/>
			<path class="st7" d="M194.48,90.61v3.84c0,0.23,0.19,0.42,0.42,0.42h0.74c0.23,0,0.42-0.19,0.42-0.42v-3.84H194.48z"/>
			<polygon class="st8" points="195.27,79.17 192.21,85.96 198.33,85.96 			"/>
			<polygon class="st4" points="195.27,77.81 193.33,82.11 197.21,82.11 			"/>
		</g>
		<g class="st16">
			<polygon class="st6" points="179.03,202.04 172.66,216.16 185.39,216.16 			"/>
			<path class="st7" d="M177.83,216.16v5.84c0,0.35,0.28,0.63,0.63,0.63h1.13c0.35,0,0.63-0.28,0.63-0.63v-5.84H177.83z"/>
			<polygon class="st8" points="179.03,198.77 174.37,209.1 183.68,209.1 			"/>
			<polygon class="st4" points="179.03,196.71 176.08,203.25 181.98,203.25 			"/>
		</g>
		<g class="st16">
			<polygon class="st6" points="124.66,155.6 120.81,164.16 128.52,164.16 			"/>
			<path class="st7" d="M123.94,164.16v3.54c0,0.21,0.17,0.38,0.38,0.38h0.68c0.21,0,0.38-0.17,0.38-0.38v-3.54H123.94z"/>
			<polygon class="st8" points="124.66,153.63 121.84,159.88 127.49,159.88 			"/>
			<polygon class="st4" points="124.66,152.37 122.88,156.34 126.45,156.34 			"/>
		</g>
		<g class="st16">
			<polygon class="st6" points="192.06,48.94 187.87,58.24 196.25,58.24 			"/>
			<path class="st7" d="M191.27,58.24v3.84c0,0.23,0.19,0.42,0.42,0.42h0.74c0.23,0,0.42-0.19,0.42-0.42v-3.84H191.27z"/>
			<polygon class="st8" points="192.06,46.79 188.99,53.59 195.12,53.59 			"/>
			<polygon class="st4" points="192.06,45.43 190.12,49.74 194,49.74 			"/>
		</g>
		<g class="st16">
			<g>
				<path class="st9" d="M238.12,136.13c0,1.54,1.25,2.8,2.8,2.8C240.92,137.39,239.66,136.13,238.12,136.13z"/>
			</g>
			<g>
				<path class="st9" d="M243.71,136.13c0,1.54-1.25,2.8-2.8,2.8C240.92,137.39,242.17,136.13,243.71,136.13z"/>
			</g>
		</g>
		<g class="st16">
			<g>
				<path class="st9" d="M165.25,237.15c0,1.54,1.25,2.8,2.8,2.8C168.04,238.4,166.79,237.15,165.25,237.15z"/>
			</g>
			<g>
				<path class="st9" d="M170.84,237.15c0,1.54-1.25,2.8-2.8,2.8C168.04,238.4,169.29,237.15,170.84,237.15z"/>
			</g>
		</g>
		<g class="st16">
			<g>
				<path class="st9" d="M125.78,120.12c0,1.54,1.25,2.8,2.8,2.8C128.57,121.37,127.32,120.12,125.78,120.12z"/>
			</g>
			<g>
				<path class="st9" d="M131.37,120.12c0,1.54-1.25,2.8-2.8,2.8C128.57,121.37,129.83,120.12,131.37,120.12z"/>
			</g>
		</g>
		<g class="st16">
			<g>
				<path class="st9" d="M189.67,217.31c0,1.54,1.25,2.8,2.8,2.8C192.46,218.56,191.21,217.31,189.67,217.31z"/>
			</g>
			<g>
				<path class="st9" d="M195.26,217.31c0,1.54-1.25,2.8-2.8,2.8C192.46,218.56,193.71,217.31,195.26,217.31z"/>
			</g>
		</g>
		<g class="st16">
			<g>
				<path class="st9" d="M121.21,145.11c0,1.54,1.25,2.8,2.8,2.8C124.01,146.36,122.76,145.11,121.21,145.11z"/>
			</g>
			<g>
				<path class="st9" d="M126.8,145.11c0,1.54-1.25,2.8-2.8,2.8C124.01,146.36,125.26,145.11,126.8,145.11z"/>
			</g>
		</g>
		<g class="st16">
			<g>
				<path class="st9" d="M97.57,116.73c0,1.54,1.25,2.8,2.8,2.8C100.37,117.98,99.11,116.73,97.57,116.73z"/>
			</g>
			<g>
				<path class="st9" d="M103.16,116.73c0,1.54-1.25,2.8-2.8,2.8C100.37,117.98,101.62,116.73,103.16,116.73z"/>
			</g>
		</g>
		<g class="st16">
			<g>
				<path class="st9" d="M202.28,77.35c0,1.54,1.25,2.8,2.8,2.8C205.08,78.6,203.83,77.35,202.28,77.35z"/>
			</g>
			<g>
				<path class="st9" d="M207.87,77.35c0,1.54-1.25,2.8-2.8,2.8C205.08,78.6,206.33,77.35,207.87,77.35z"/>
			</g>
		</g>
		<g class="st16">
			<g>
				<path class="st9" d="M169.2,186.51c0,1.54,1.25,2.8,2.8,2.8C171.99,187.76,170.74,186.51,169.2,186.51z"/>
			</g>
			<g>
				<path class="st9" d="M174.79,186.51c0,1.54-1.25,2.8-2.8,2.8C171.99,187.76,173.25,186.51,174.79,186.51z"/>
			</g>
		</g>
		<g class="st16">
			<g>
				<path class="st9" d="M241.05,170.36c0,1.54,1.25,2.8,2.8,2.8C243.84,171.61,242.59,170.36,241.05,170.36z"/>
			</g>
			<g>
				<path class="st9" d="M246.64,170.36c0,1.54-1.25,2.8-2.8,2.8C243.84,171.61,245.09,170.36,246.64,170.36z"/>
			</g>
		</g>
	</g>
	<g>
		<path class="st17" d="M210.07,186.24c0,6.21-11.24,23.17-11.24,23.17s-11.24-16.97-11.24-23.17c0-6.21,5.03-11.24,11.24-11.24
			C205.04,175,210.07,180.03,210.07,186.24z"/>
		<path class="st18" d="M205.44,186.24c0,3.65-2.96,6.61-6.61,6.61c-3.65,0-6.61-2.96-6.61-6.61c0-3.65,2.96-6.61,6.61-6.61
			C202.48,179.63,205.44,182.59,205.44,186.24z"/>
	</g>
	<g class="st0">
		<path class="st10" d="M268.99,77.73c0,14.77-26.74,55.14-26.74,55.14S215.5,92.5,215.5,77.73c0-14.77,11.97-26.75,26.75-26.75
			C257.02,50.98,268.99,62.96,268.99,77.73z"/>
		<path class="st11" d="M257.97,77.73c0,8.68-7.04,15.72-15.72,15.72c-8.68,0-15.72-7.04-15.72-15.72c0-8.68,7.04-15.72,15.72-15.72
			C250.93,62.01,257.97,69.05,257.97,77.73z"/>
	</g>
	<g>
		<path class="st17" d="M128.64,102.8c0,11.49-20.8,42.89-20.8,42.89s-20.8-31.4-20.8-42.89c0-11.49,9.31-20.8,20.8-20.8
			C119.32,82,128.64,91.31,128.64,102.8z"/>
		
			<ellipse transform="matrix(0.2306 -0.9731 0.9731 0.2306 -17.0627 184.0284)" class="st18" cx="107.83" cy="102.8" rx="12.23" ry="12.23"/>
	</g>
	<path class="st18" d="M12.53,126.12h-1.26c-1.84,0-3.34-1.49-3.34-3.34v-1.2c0-0.52-0.39-0.99-0.91-1.02
		C6.47,120.53,6,120.97,6,121.53v1.26c0,1.84-1.49,3.34-3.34,3.34H1.41c-0.53,0-0.97,0.43-0.97,0.97l0,0c0,0.53,0.43,0.97,0.97,0.97
		h1.26c1.84,0,3.34,1.49,3.34,3.34v1.2c0,0.52,0.39,0.99,0.91,1.02c0.56,0.03,1.02-0.41,1.02-0.97v-1.26c0-1.84,1.49-3.34,3.34-3.34
		h1.26c0.53,0,0.97-0.43,0.97-0.97l0,0C13.5,126.55,13.06,126.12,12.53,126.12z"/>
	<path class="st18" d="M171.4,12.17h-1.26c-1.84,0-3.34-1.49-3.34-3.34v-1.2c0-0.52-0.39-0.99-0.91-1.02
		c-0.56-0.03-1.02,0.41-1.02,0.97v1.26c0,1.84-1.49,3.34-3.34,3.34h-1.26c-0.53,0-0.97,0.43-0.97,0.97l0,0
		c0,0.53,0.43,0.97,0.97,0.97h1.26c1.84,0,3.34,1.49,3.34,3.34v1.2c0,0.52,0.39,0.99,0.91,1.02c0.56,0.03,1.02-0.41,1.02-0.97v-1.26
		c0-1.84,1.49-3.34,3.34-3.34h1.26c0.53,0,0.97-0.43,0.97-0.97l0,0C172.37,12.6,171.94,12.17,171.4,12.17z"/>
	<path class="st18" d="M296.28,191.71h-1.26c-1.84,0-3.34-1.49-3.34-3.34v-1.2c0-0.52-0.39-0.99-0.91-1.02
		c-0.56-0.03-1.02,0.41-1.02,0.97v1.26c0,1.84-1.49,3.34-3.34,3.34h-1.26c-0.53,0-0.97,0.43-0.97,0.97l0,0
		c0,0.53,0.43,0.97,0.97,0.97h1.26c1.84,0,3.34,1.49,3.34,3.34v1.2c0,0.52,0.39,0.99,0.91,1.02c0.56,0.03,1.02-0.41,1.02-0.97v-1.26
		c0-1.84,1.49-3.34,3.34-3.34h1.26c0.53,0,0.97-0.43,0.97-0.97l0,0C297.24,192.14,296.81,191.71,296.28,191.71z"/>
	<path class="st18" d="M32.65,70.04h-0.62c-0.9,0-1.64-0.73-1.64-1.64v-0.59c0-0.26-0.19-0.49-0.45-0.5c-0.27-0.01-0.5,0.2-0.5,0.47
		v0.62c0,0.9-0.73,1.64-1.64,1.64H27.2c-0.26,0-0.47,0.21-0.47,0.47l0,0c0,0.26,0.21,0.47,0.47,0.47h0.62c0.9,0,1.64,0.73,1.64,1.64
		v0.59c0,0.26,0.19,0.49,0.45,0.5c0.27,0.01,0.5-0.2,0.5-0.47v-0.62c0-0.9,0.73-1.64,1.64-1.64h0.62c0.26,0,0.47-0.21,0.47-0.47l0,0
		C33.13,70.26,32.92,70.04,32.65,70.04z"/>
	<path class="st18" d="M201.3,33.75h-0.62c-0.9,0-1.64-0.73-1.64-1.64v-0.59c0-0.26-0.19-0.49-0.45-0.5c-0.27-0.01-0.5,0.2-0.5,0.47
		v0.62c0,0.9-0.73,1.64-1.64,1.64h-0.62c-0.26,0-0.47,0.21-0.47,0.47l0,0c0,0.26,0.21,0.47,0.47,0.47h0.62
		c0.9,0,1.64,0.73,1.64,1.64v0.59c0,0.26,0.19,0.49,0.45,0.5c0.27,0.01,0.5-0.2,0.5-0.47v-0.62c0-0.9,0.73-1.64,1.64-1.64h0.62
		c0.26,0,0.47-0.21,0.47-0.47l0,0C201.77,33.96,201.56,33.75,201.3,33.75z"/>
	<path class="st18" d="M286.92,151.67h-0.62c-0.9,0-1.64-0.73-1.64-1.64v-0.59c0-0.26-0.19-0.49-0.45-0.5
		c-0.27-0.01-0.5,0.2-0.5,0.47v0.62c0,0.9-0.73,1.64-1.64,1.64h-0.62c-0.26,0-0.47,0.21-0.47,0.47l0,0c0,0.26,0.21,0.47,0.47,0.47
		h0.62c0.9,0,1.64,0.73,1.64,1.64v0.59c0,0.26,0.19,0.49,0.45,0.5c0.27,0.01,0.5-0.2,0.5-0.47v-0.62c0-0.9,0.73-1.64,1.64-1.64h0.62
		c0.26,0,0.47-0.21,0.47-0.47l0,0C287.39,151.89,287.18,151.67,286.92,151.67z"/>
	<path class="st18" d="M66.12,259.8H65.5c-0.9,0-1.64-0.73-1.64-1.64v-0.59c0-0.26-0.19-0.49-0.45-0.5c-0.27-0.01-0.5,0.2-0.5,0.47
		v0.62c0,0.9-0.73,1.64-1.64,1.64h-0.62c-0.26,0-0.47,0.21-0.47,0.47l0,0c0,0.26,0.21,0.47,0.47,0.47h0.62
		c0.9,0,1.64,0.73,1.64,1.64v0.59c0,0.26,0.19,0.49,0.45,0.5c0.27,0.01,0.5-0.2,0.5-0.47v-0.62c0-0.9,0.73-1.64,1.64-1.64h0.62
		c0.26,0,0.47-0.21,0.47-0.47l0,0C66.59,260.01,66.38,259.8,66.12,259.8z"/>
	<path class="st18" d="M259.77,225.83h-0.62c-0.9,0-1.64-0.73-1.64-1.64v-0.59c0-0.26-0.19-0.49-0.45-0.5
		c-0.27-0.01-0.5,0.2-0.5,0.47v0.62c0,0.9-0.73,1.64-1.64,1.64h-0.62c-0.26,0-0.47,0.21-0.47,0.47l0,0c0,0.26,0.21,0.47,0.47,0.47
		h0.62c0.9,0,1.64,0.73,1.64,1.64V229c0,0.26,0.19,0.49,0.45,0.5c0.27,0.01,0.5-0.2,0.5-0.47v-0.62c0-0.9,0.73-1.64,1.64-1.64h0.62
		c0.26,0,0.47-0.21,0.47-0.47l0,0C260.24,226.04,260.03,225.83,259.77,225.83z"/>
	<path class="st18" d="M182.09,275.54h-0.62c-0.9,0-1.64-0.73-1.64-1.64v-0.59c0-0.26-0.19-0.49-0.45-0.5
		c-0.27-0.01-0.5,0.2-0.5,0.47v0.62c0,0.9-0.73,1.64-1.64,1.64h-0.62c-0.26,0-0.47,0.21-0.47,0.47l0,0c0,0.26,0.21,0.47,0.47,0.47
		h0.62c0.9,0,1.64,0.73,1.64,1.64v0.59c0,0.26,0.19,0.49,0.45,0.5c0.27,0.01,0.5-0.2,0.5-0.47v-0.62c0-0.9,0.73-1.64,1.64-1.64h0.62
		c0.26,0,0.47-0.21,0.47-0.47l0,0C182.57,275.75,182.35,275.54,182.09,275.54z"/>
	<path class="st18" d="M35.85,167.84h-0.62c-0.9,0-1.64-0.73-1.64-1.64v-0.59c0-0.26-0.19-0.49-0.45-0.5
		c-0.27-0.01-0.5,0.2-0.5,0.47v0.62c0,0.9-0.73,1.64-1.64,1.64H30.4c-0.26,0-0.47,0.21-0.47,0.47l0,0c0,0.26,0.21,0.47,0.47,0.47
		h0.62c0.9,0,1.64,0.73,1.64,1.64v0.59c0,0.26,0.19,0.49,0.45,0.5c0.27,0.01,0.5-0.2,0.5-0.47v-0.62c0-0.9,0.73-1.64,1.64-1.64h0.62
		c0.26,0,0.47-0.21,0.47-0.47l0,0C36.33,168.05,36.12,167.84,35.85,167.84z"/>
	<path class="st18" d="M107.34,9.33h-0.62c-0.9,0-1.64-0.73-1.64-1.64V7.11c0-0.26-0.19-0.49-0.45-0.5c-0.27-0.01-0.5,0.2-0.5,0.47
		V7.7c0,0.9-0.73,1.64-1.64,1.64h-0.62c-0.26,0-0.47,0.21-0.47,0.47l0,0c0,0.26,0.21,0.47,0.47,0.47h0.62c0.9,0,1.64,0.73,1.64,1.64
		v0.59c0,0.26,0.19,0.49,0.45,0.5c0.27,0.01,0.5-0.2,0.5-0.47v-0.62c0-0.9,0.73-1.64,1.64-1.64h0.62c0.26,0,0.47-0.21,0.47-0.47l0,0
		C107.81,9.55,107.6,9.33,107.34,9.33z"/>
	<path class="st18" d="M299.97,91.38h-0.62c-0.9,0-1.64-0.73-1.64-1.64v-0.59c0-0.26-0.19-0.49-0.45-0.5
		c-0.27-0.01-0.5,0.2-0.5,0.47v0.62c0,0.9-0.73,1.64-1.64,1.64h-0.62c-0.26,0-0.47,0.21-0.47,0.47l0,0c0,0.26,0.21,0.47,0.47,0.47
		h0.62c0.9,0,1.64,0.73,1.64,1.64v0.59c0,0.26,0.19,0.49,0.45,0.5c0.27,0.01,0.5-0.2,0.5-0.47v-0.62c0-0.9,0.73-1.64,1.64-1.64h0.62
		c0.26,0,0.47-0.21,0.47-0.47l0,0C300.44,91.6,300.23,91.38,299.97,91.38z"/>
	<path class="st18" d="M221.48,120.28c-0.72,0-1.41,0.14-2.05,0.38c0-0.13,0.02-0.25,0.02-0.38c0-6.47-5.25-11.72-11.72-11.72
		c-5.48,0-10.07,3.77-11.35,8.85c-1.12-0.62-2.4-0.98-3.77-0.98c-3.56,0-6.56,2.4-7.48,5.67c-0.95-0.77-2.16-1.23-3.48-1.23
		c-3.07,0-5.56,2.49-5.56,5.56c0,3.07,2.49,5.56,5.56,5.56h39.84c3.24,0,5.86-2.62,5.86-5.86
		C227.34,122.91,224.72,120.28,221.48,120.28z"/>
	<path class="st12" d="M138.65,56.16c-0.89,0-1.73,0.17-2.51,0.46c-0.8-6-5.93-10.64-12.15-10.64c-2.19,0-4.24,0.58-6.02,1.59
		c-1.53-9.38-9.67-16.55-19.49-16.55c-9.33,0-17.14,6.47-19.21,15.16c-1.1-0.32-2.26-0.5-3.46-0.5c-6.86,0-12.42,5.56-12.42,12.42
		s5.56,12.42,12.42,12.42h62.84c3.97,0,7.18-3.22,7.18-7.18C145.83,59.37,142.62,56.16,138.65,56.16z"/>
	<path class="st18" d="M113.85,192.48c-2.97,0-5.65,1.2-7.6,3.14c-2.03-4.61-6.63-7.83-11.99-7.83c-6.06,0-11.14,4.11-12.64,9.69
		c-0.72-0.2-1.47-0.32-2.26-0.32c-4.65,0-8.41,3.77-8.41,8.41c0,4.65,3.77,8.41,8.41,8.41h34.48c5.94,0,10.76-4.82,10.76-10.76
		C124.61,197.3,119.8,192.48,113.85,192.48z"/>
	<path class="st18" d="M83.14,57.32c2.3,0,4.38,0.93,5.89,2.43c1.57-3.57,5.14-6.07,9.3-6.07c4.69,0,8.63,3.19,9.8,7.52
		c0.56-0.16,1.14-0.24,1.75-0.24c3.6,0,6.52,2.92,6.52,6.52c0,3.6-2.92,6.52-6.52,6.52H83.14c-4.61,0-8.34-3.73-8.34-8.34
		S78.53,57.32,83.14,57.32z"/>
	<path class="st18" d="M127.98,288.5h1.26c1.84,0,3.34,1.49,3.34,3.34v1.2c0,0.52,0.39,0.99,0.91,1.02
		c0.56,0.03,1.02-0.41,1.02-0.97v-1.26c0-1.84,1.49-3.34,3.34-3.34h1.26c0.53,0,0.97-0.43,0.97-0.97c0-0.53-0.43-0.97-0.97-0.97
		h-1.26c-1.84,0-3.34-1.49-3.34-3.34v-1.2c0-0.52-0.39-0.99-0.91-1.02c-0.56-0.03-1.02,0.41-1.02,0.97v1.26
		c0,1.84-1.49,3.34-3.34,3.34h-1.26c-0.53,0-0.97,0.43-0.97,0.97C127.01,288.07,127.45,288.5,127.98,288.5z"/>
</g>
<g id="Capa_3" class="st0">
	<polygon class="st19" points="13.35,182.98 0,204.58 90.31,260.34 300,39.66 0,152.36 65.58,208.51 	"/>
</g>
</svg>
